MetricName,PageLoadTime
guest_ind_registration,1083
guest_pvt_employer_registration,1190
guest_pub_employer_registration,6054
guest_searching_job_post,6212
guest_searching_candidate_profiles,1881
ind_user_login,8448
ind_user_view_profile_info,4218
ind_user_view_job_app,2643
ind_user_searching_job_post,9416
ind_user_view_complaints,5677
ind_user_view_program_obligation,1679
employer_login,15698
employer_searching_candidate_profile,2967
employer_viewing_job_post_overview,3942
employer_viewing_job_post_app_mgmt,1642
backend_user_url_availability,6402
backend_user_login,75
